{"hash":"4e8d6a523acb0a380e682d7db05514b5e86cf0a4","data":{"author":{"id":"meow","title":"meow","path":"/author/meow/","belongsTo":{"totalCount":7,"pageInfo":{"totalPages":2,"currentPage":2},"edges":[{"node":{"id":"cc1ec118095316992a3037ee5200fb32","title":"Tinybuds Baby","datetime":"2017-08-01 00:00:00","path":"/tinybuds-baby/","content":"<p>Tinybuds is an online shop selling natural products for babies.</p>\n","excerpt":"","description":"","timeToRead":1,"tags":[{"id":"projects","title":"projects","path":"/tag/projects/"}]}}]}}},"context":{}}