{"hash":"4e8d6a523acb0a380e682d7db05514b5e86cf0a4","data":{"posts":{"totalCount":14,"pageInfo":{"totalPages":3,"currentPage":3},"edges":[{"node":{"id":"787ce1e9bd91a0095843420b92cf251e","title":"Plug It","timeToRead":1,"datetime":"2019-06-20 00:00:00","content":"<p>Plug It is a co-working space &#x26; Studio hub for working professionals and university students. </p>\n<hr>\n","excerpt":"","description":"Coworking System","path":"/plug-it/","cover":"https://raw.githubusercontent.com/meowmanijado/meowmanijado.github.io/develop/static/images/posts/plugit.jpg","tags":[{"id":"projects","title":"projects","path":"/tag/projects/"},{"id":"laravel","title":"laravel","path":"/tag/laravel/"}],"author":{"id":"meow","title":"meow","path":"/author/meow/"}}},{"node":{"id":"cc1ec118095316992a3037ee5200fb32","title":"Tinybuds Baby","timeToRead":1,"datetime":"2017-08-01 00:00:00","content":"<p>Tinybuds is an online shop selling natural products for babies.</p>\n","excerpt":"","description":"","path":"/tinybuds-baby/","cover":"https://raw.githubusercontent.com/meowmanijado/meowmanijado.github.io/develop/static/images/posts/tinybuds-homepage.jpg","tags":[{"id":"projects","title":"projects","path":"/tag/projects/"}],"author":{"id":"meow","title":"meow","path":"/author/meow/"}}}]}},"context":{}}