{"hash":"50b45ba43da2ba545e13e67a992c3ec74ddc7a7a","data":{"posts":{"totalCount":14,"pageInfo":{"totalPages":2,"currentPage":2},"edges":[{"node":{"id":"3b9a1d89581d7f1ac3717dcdf7bf7c2f","title":"📚 For one more day by Mitch Albom","timeToRead":1,"datetime":"2020-01-20 00:00:00","content":"\n","excerpt":"","description":"","path":"/for-one-more-day-by-mitch-albom/","cover":"","tags":[{"id":"Books","title":"Books","path":"/tag/Books/"}],"author":null}},{"node":{"id":"c88df58eeed7f9484438d9faf5dcaf54","title":"TIBS","timeToRead":1,"datetime":"2019-06-20 00:00:00","content":"<p>TIBS is a Barangay System tool to manage residents identity and secure information.\n<img src=\"/images/posts/TIBS.png\" alt=\"TIBS\"></p>\n","excerpt":"","description":"Barangay ID system tool for residents management and ID printing.","path":"/tibs/","cover":"https://raw.githubusercontent.com/meowmanijado/meowmanijado.github.io/develop/static/images/posts/TIBS.png","tags":[{"id":"projects","title":"projects","path":"/tag/projects/"}],"author":{"id":"meow","title":"meow","path":"/author/meow/"}}},{"node":{"id":"787ce1e9bd91a0095843420b92cf251e","title":"Plug It","timeToRead":1,"datetime":"2019-06-20 00:00:00","content":"<p>Plug It is a co-working space &#x26; Studio hub for working professionals and university students. </p>\n<hr>\n","excerpt":"","description":"Coworking System","path":"/plug-it/","cover":"https://raw.githubusercontent.com/meowmanijado/meowmanijado.github.io/develop/static/images/posts/plugit.jpg","tags":[{"id":"projects","title":"projects","path":"/tag/projects/"},{"id":"laravel","title":"laravel","path":"/tag/laravel/"}],"author":{"id":"meow","title":"meow","path":"/author/meow/"}}},{"node":{"id":"cc1ec118095316992a3037ee5200fb32","title":"Tinybuds Baby","timeToRead":1,"datetime":"2017-08-01 00:00:00","content":"<p>Tinybuds is an online shop selling natural products for babies.</p>\n","excerpt":"","description":"","path":"/tinybuds-baby/","cover":"https://raw.githubusercontent.com/meowmanijado/meowmanijado.github.io/develop/static/images/posts/tinybuds-homepage.jpg","tags":[{"id":"projects","title":"projects","path":"/tag/projects/"}],"author":{"id":"meow","title":"meow","path":"/author/meow/"}}}]}},"context":{}}