{"hash":"4e8d6a523acb0a380e682d7db05514b5e86cf0a4","data":{"author":{"id":"meow","title":"meow","path":"/author/meow/","belongsTo":{"totalCount":7,"pageInfo":{"totalPages":2,"currentPage":1},"edges":[{"node":{"id":"288b475823f665dbb98935a28a023053","title":"Setting up Laravel with AWS EC2 and RDS","datetime":"2020-03-14 00:00:00","path":"/setting-up-laravel-with-aws-e-c2-and-rds/","content":"<p><em>Note: This is not an how to ultimate guide, it's my personal documentation how I manage to set this up and for future cheatsheet.</em></p>\n<h2 id=\"prerequisite\"><a href=\"#prerequisite\" aria-hidden=\"true\"><span class=\"icon icon-link\"></span></a>Prerequisite</h2>\n<hr>\n<ul>\n<li>Account to AWS Fre Tier</li>\n<li>Laravel Project Repository</li>\n</ul>\n<h2 id=\"aws-ec2\"><a href=\"#aws-ec2\" aria-hidden=\"true\"><span class=\"icon icon-link\"></span></a>AWS EC2</h2>\n<hr>\n<ol>\n<li>Create EC2 instance</li>\n<li>Select (Free tier eligible) Ubuntu Server 18.04 LTS (HVM), SSD Volume Type</li>\n<li>Select Next Configure Security Group</li>\n<li>Select Type: HTTP; Port Range 80</li>\n<li>I use key pair for additional security</li>\n</ol>\n<blockquote>\n<p>A key pair consists of a public key that AWS stores, and a private key file that you store. Together, they allow you to connect to your instance securely. For Windows AMIs, the private key file is required to obtain the password used to log into your instance. For Linux AMIs, the private key file allows you to securely SSH into your instance.</p>\n</blockquote>\n<p>--</p>\n<blockquote>\n<p>You have to download the private key file (*.pem file) before you can continue. Store it in a secure and accessible location. You will not be able to download the file again after it's created.</p>\n</blockquote>\n<p>Once the instance already created, you can now access the server using ssh</p>\n<code class=\"shiki\" style=\"background: #2e3440; color: #d8dee9\">ssh ubuntu@1xx.xx.xx.xxx -i ~/document-path-of-pem-file.pem</code>\n<h2 id=\"installing-nginx\"><a href=\"#installing-nginx\" aria-hidden=\"true\"><span class=\"icon icon-link\"></span></a>Installing Nginx</h2>\n<hr>\n<code class=\"shiki\" style=\"background: #2e3440; color: #d8dee9\">sudo apt update\nsudo apt install nginx</code>\n<p>Checking web server</p>\n<code class=\"shiki\" style=\"background: #2e3440; color: #d8dee9\">systemctl status nginx</code>\n<pre class=\"shiki\" style=\"background-color: #ffffff\"><code><span style=\"color: #24292EFF\">Output</span>\n<span style=\"color: #24292EFF\">● nginx.service - A high performance web server and a reverse proxy server</span>\n<span style=\"color: #24292EFF\">   Loaded: loaded (/lib/systemd/system/nginx.service</span><span style=\"color: #D32F2F\">;</span><span style=\"color: #24292EFF\"> enabled</span><span style=\"color: #D32F2F\">;</span><span style=\"color: #24292EFF\"> vendor preset: enabled)</span>\n<span style=\"color: #24292EFF\">   Active: active (running) since Fri 2018-04-20 16:08:19 UTC</span><span style=\"color: #D32F2F\">;</span><span style=\"color: #24292EFF\"> 3 days ago</span>\n<span style=\"color: #24292EFF\">     Docs: man:nginx(8)</span>\n<span style=\"color: #24292EFF\"> Main PID: 2369 (nginx)</span>\n<span style=\"color: #24292EFF\">    Tasks: 2 (limit: 1153)</span>\n<span style=\"color: #24292EFF\">   CGroup: /system.slice/nginx.service</span>\n<span style=\"color: #24292EFF\">           ├─2369 nginx: master process /usr/sbin/nginx -g daemon on</span><span style=\"color: #D32F2F\">;</span><span style=\"color: #24292EFF\"> master_process on</span><span style=\"color: #D32F2F\">;</span>\n<span style=\"color: #24292EFF\">           └─2380 nginx: worker process</span></code></pre>\n<p>Now Nginx appears starterd successfully.</p>\n<p>To check on the browser, call the public IP address that you can get on the instance page, then you can see the Welcome to NGINX!</p>\n<p>For more detailed instruction I followed this tutorial!</p>\n<p><a href=\"https://www.digitalocean.com/community/tutorials/how-to-install-nginx-on-ubuntu-18-04\" target=\"_blank\" rel=\"nofollow noopener noreferrer\">https://www.digitalocean.com/community/tutorials/how-to-install-nginx-on-ubuntu-18-04</a></p>\n<p>✏️ <em>Note to self: Write Nginx cheatsheet for my future self!</em></p>\n<h2 id=\"installing-php\"><a href=\"#installing-php\" aria-hidden=\"true\"><span class=\"icon icon-link\"></span></a>Installing PHP</h2>\n<hr>\n<pre class=\"shiki\" style=\"background-color: #ffffff\"><code><span style=\"color: #24292EFF\">sudo apt install php-fpm php-mysql</span></code></pre>\n<pre class=\"shiki\" style=\"background-color: #ffffff\"><code><span style=\"color: #24292EFF\">sudo apt install php7.4-mbstring php7.4-xmlrpc php7.4-soap php7.4-gd php7.4-xml php7.4-cli php7.4-zip</span></code></pre>\n<h2 id=\"configure-ssh\"><a href=\"#configure-ssh\" aria-hidden=\"true\"><span class=\"icon icon-link\"></span></a>Configure SSH</h2>\n<hr>\n<pre class=\"shiki\" style=\"background-color: #ffffff\"><code><span style=\"color: #24292EFF\">$ ssh-key-gen</span>\n<span style=\"color: #24292EFF\">$ cat </span><span style=\"color: #D32F2F\">~</span><span style=\"color: #24292EFF\">/.ssh/id_rsa.pub</span></code></pre>\n<p>Other resources:\n<a href=\"https://www.digitalocean.com/community/tutorials/how-to-set-up-ssh-keys-on-ubuntu-1604\" target=\"_blank\" rel=\"nofollow noopener noreferrer\">https://www.digitalocean.com/community/tutorials/how-to-set-up-ssh-keys-on-ubuntu-1604</a></p>\n<p><a href=\"https://help.github.com/en/github/authenticating-to-github/error-permission-denied-publickey\" target=\"_blank\" rel=\"nofollow noopener noreferrer\">https://help.github.com/en/github/authenticating-to-github/error-permission-denied-publickey</a></p>\n<h2 id=\"installing-composer\"><a href=\"#installing-composer\" aria-hidden=\"true\"><span class=\"icon icon-link\"></span></a>Installing composer</h2>\n<hr>\n<p><a href=\"https://linuxize.com/post/how-to-install-and-use-composer-on-ubuntu-18-04/\" target=\"_blank\" rel=\"nofollow noopener noreferrer\">https://linuxize.com/post/how-to-install-and-use-composer-on-ubuntu-18-04/</a></p>\n<h2 id=\"configuring-nginx-to-use-the-php-processor\"><a href=\"#configuring-nginx-to-use-the-php-processor\" aria-hidden=\"true\"><span class=\"icon icon-link\"></span></a>Configuring Nginx to Use the PHP Processor</h2>\n<pre class=\"shiki\" style=\"background-color: #ffffff\"><code><span style=\"color: #24292EFF\">sudo nano /etc/nginx/sites-available/spartan</span></code></pre>\n<pre class=\"shiki\" style=\"background-color: #ffffff\"><code><span style=\"color: #24292EFF\">server {</span>\n<span style=\"color: #24292EFF\">        listen 80</span><span style=\"color: #D32F2F\">;</span>\n<span style=\"color: #24292EFF\">        root /var/www/html</span><span style=\"color: #D32F2F\">;</span>\n<span style=\"color: #24292EFF\">        index index.php index.html index.htm index.nginx-debian.html</span><span style=\"color: #D32F2F\">;</span>\n<span style=\"color: #24292EFF\">        server_name example.com</span><span style=\"color: #D32F2F\">;</span>\n<span style=\"color: #24292EFF\">​</span>\n<span style=\"color: #24292EFF\">        location / {</span>\n<span style=\"color: #24292EFF\">                try_files $uri $uri/ =404</span><span style=\"color: #D32F2F\">;</span>\n<span style=\"color: #24292EFF\">        }</span>\n<span style=\"color: #24292EFF\">​</span>\n<span style=\"color: #24292EFF\">        location </span><span style=\"color: #D32F2F\">~</span><span style=\"color: #24292EFF\"> \\.php$ {</span>\n<span style=\"color: #24292EFF\">                include snippets/fastcgi-php.conf</span><span style=\"color: #D32F2F\">;</span>\n<span style=\"color: #24292EFF\">                fastcgi_pass unix:/var/run/php/php7.2-fpm.sock</span><span style=\"color: #D32F2F\">;</span>\n<span style=\"color: #24292EFF\">        }</span>\n<span style=\"color: #24292EFF\">​</span>\n<span style=\"color: #24292EFF\">        location </span><span style=\"color: #D32F2F\">~</span><span style=\"color: #24292EFF\"> /\\.ht {</span>\n<span style=\"color: #24292EFF\">                deny all</span><span style=\"color: #D32F2F\">;</span>\n<span style=\"color: #24292EFF\">        }</span>\n<span style=\"color: #24292EFF\">}</span></code></pre>\n<p>Enable your new server block by creating a symbolic link from your new server block configuration file (in the <code class=\"shiki-inline\" style=\"background: #2e3440; color: #d8dee9\">/etc/nginx/sites-available/ directory)</code> to the <code class=\"shiki-inline\" style=\"background: #2e3440; color: #d8dee9\">/etc/nginx/sites-enabled/</code> directory:</p>\n<pre class=\"shiki\" style=\"background-color: #ffffff\"><code><span style=\"color: #24292EFF\">sudo ln -s /etc/nginx/sites-available/spartan /etc/nginx/sites-enabled/</span></code></pre>\n<p>To test your new configuration</p>\n<pre class=\"shiki\" style=\"background-color: #ffffff\"><code><span style=\"color: #24292EFF\">sudo nginx -t</span></code></pre>\n<p>Reload NGINX to make the necessary changes</p>\n<pre class=\"shiki\" style=\"background-color: #ffffff\"><code><span style=\"color: #24292EFF\">sudo servince nginx restart</span></code></pre>\n<p>To test in the browser, create PHP file wit phpinfo();</p>\n<pre class=\"shiki\" style=\"background-color: #ffffff\"><code><span style=\"color: #24292EFF\">sudo nano /var/www/spartan/test.php </span></code></pre>\n<pre class=\"shiki\" style=\"background-color: #ffffff\"><code><span style=\"color: #24292EFF\">&lt;?php</span>\n<span style=\"color: #24292EFF\">​</span>\n<span style=\"color: #1976D2\">echo</span><span style=\"color: #24292EFF\"> </span><span style=\"color: #1976D2\">phpinfo</span><span style=\"color: #24292EFF\">();</span>\n<span style=\"color: #24292EFF\">​</span>\n<span style=\"color: #24292EFF\">?&gt;</span></code></pre>\n<p>It should display the PHP info.</p>\n<p>🤔 What is the difference of Mysql and MariaDB?</p>\n<p>Debugging\n<a href=\"https://stackoverflow.com/questions/41147609/unable-to-start-the-mysql-server-in-ubuntu\" target=\"_blank\" rel=\"nofollow noopener noreferrer\">https://stackoverflow.com/questions/41147609/unable-to-start-the-mysql-server-in-ubuntu</a></p>\n<pre class=\"shiki\" style=\"background-color: #ffffff\"><code><span style=\"color: #24292EFF\">apt install php7.4-mysql</span></code></pre>\n<p><a href=\"https://stackoverflow.com/questions/37212945/aws-cant-connect-to-rds-database-from-my-machine\" target=\"_blank\" rel=\"nofollow noopener noreferrer\">https://stackoverflow.com/questions/37212945/aws-cant-connect-to-rds-database-from-my-machine</a></p>\n<p><a href=\"https://linuxacademy.com/guide/15653-using-aws-rds-with-laravel-october-cms/\" target=\"_blank\" rel=\"nofollow noopener noreferrer\">https://linuxacademy.com/guide/15653-using-aws-rds-with-laravel-october-cms/</a></p>\n","excerpt":"","description":"","timeToRead":3,"tags":[{"id":"Today I Learned","title":"Today I Learned","path":"/tag/Today%20I%20Learned/"},{"id":"AWS","title":"AWS","path":"/tag/AWS/"},{"id":"RDS","title":"RDS","path":"/tag/RDS/"},{"id":"EC2","title":"EC2","path":"/tag/EC2/"},{"id":"Laravel","title":"Laravel","path":"/tag/Laravel/"}]}},{"node":{"id":"5eed392dda578581b097799a9a262838","title":"🔥 TIL: Yarn add specific version","datetime":"2020-02-11 00:00:00","path":"/til-yarn-add-specific-version/","content":"<p>I encountered an error today related to tippyjs not registered properly on the Root instance.</p>\n<code class=\"shiki\" style=\"background: #2e3440; color: #d8dee9\">For recursive components, make sure to provide the &quot;name&quot; option. But name is provided for all components. </code>\n","excerpt":"","description":"","timeToRead":1,"tags":[{"id":"Today I Learned","title":"Today I Learned","path":"/tag/Today%20I%20Learned/"}]}},{"node":{"id":"53c4d1cbd109e1f6b5f662f67f87d406","title":"Debugging 🛠","datetime":"2020-02-01 00:00:00","path":"/debugging/","content":"<p>Learnings from Wes Bos Course 😎</p>\n<p>You can select the element stack then go to console and call it using <code class=\"shiki-inline\" style=\"background: #2e3440; color: #d8dee9\">$0</code></p>\n","excerpt":"","description":"","timeToRead":1,"tags":[{"id":"Today I Learned","title":"Today I Learned","path":"/tag/Today%20I%20Learned/"}]}},{"node":{"id":"fd2a6a32451e688cf1fcff21755b250f","title":"Different ways to declare Function in JS","datetime":"2020-01-25 00:00:00","path":"/different-ways-to-declare-function-in-js/","content":"<p>This is a collection of learnings from Wes Bos course. 👌</p>\n<p><strong>Regular Function</strong></p>\n<pre class=\"shiki\" style=\"background-color: #ffffff\"><code><span style=\"color: #D32F2F\">function</span><span style=\"color: #24292EFF\"> </span><span style=\"color: #6F42C1\">doctorize</span><span style=\"color: #24292EFF\">(firstname) {</span>\n<span style=\"color: #24292EFF\">  </span><span style=\"color: #D32F2F\">return</span><span style=\"color: #24292EFF\"> </span><span style=\"color: #22863A\">`Dr. </span><span style=\"color: #D32F2F\">${</span><span style=\"color: #24292EFF\">firstname</span><span style=\"color: #D32F2F\">}</span><span style=\"color: #22863A\">`</span>\n<span style=\"color: #24292EFF\">}</span></code></pre>\n<p><strong>Anon or Anonymous Function</strong></p>\n<p>Function without a name.</p>\n<pre class=\"shiki\" style=\"background-color: #ffffff\"><code><span style=\"color: #D32F2F\">function</span><span style=\"color: #24292EFF\"> (firstname) {</span>\n<span style=\"color: #24292EFF\">  </span><span style=\"color: #D32F2F\">return</span><span style=\"color: #24292EFF\"> </span><span style=\"color: #22863A\">`Dr. </span><span style=\"color: #D32F2F\">${</span><span style=\"color: #24292EFF\">firstname</span><span style=\"color: #D32F2F\">}</span><span style=\"color: #22863A\">`</span>\n<span style=\"color: #24292EFF\">}</span></code></pre>\n<p><strong>Function Expression</strong></p>\n<p>Function in a variable name.</p>\n<pre class=\"shiki\" style=\"background-color: #ffffff\"><code><span style=\"color: #D32F2F\">const</span><span style=\"color: #24292EFF\"> </span><span style=\"color: #6F42C1\">doctorize</span><span style=\"color: #24292EFF\"> </span><span style=\"color: #D32F2F\">=</span><span style=\"color: #24292EFF\"> </span><span style=\"color: #D32F2F\">function</span><span style=\"color: #24292EFF\"> (firstname) {</span>\n<span style=\"color: #24292EFF\">  </span><span style=\"color: #D32F2F\">return</span><span style=\"color: #24292EFF\"> </span><span style=\"color: #22863A\">`Dr. </span><span style=\"color: #D32F2F\">${</span><span style=\"color: #24292EFF\">firstname</span><span style=\"color: #D32F2F\">}</span><span style=\"color: #22863A\">`</span>\n<span style=\"color: #24292EFF\">}</span></code></pre>\n<p><strong>Hoisting</strong></p>\n<p>Any function declaration can run before it’s define.</p>\n<pre class=\"shiki\" style=\"background-color: #ffffff\"><code><span style=\"color: #6A737D\">// Working</span>\n<span style=\"color: #6F42C1\">doctorize</span><span style=\"color: #24292EFF\">(‘wes’);</span>\n<span style=\"color: #D32F2F\">function</span><span style=\"color: #24292EFF\"> </span><span style=\"color: #6F42C1\">doctorize</span><span style=\"color: #24292EFF\">(firstname) {</span>\n<span style=\"color: #24292EFF\">  </span><span style=\"color: #D32F2F\">return</span><span style=\"color: #24292EFF\"> </span><span style=\"color: #22863A\">`Dr. </span><span style=\"color: #D32F2F\">${</span><span style=\"color: #24292EFF\">firstname</span><span style=\"color: #D32F2F\">}</span><span style=\"color: #22863A\">`</span>\n<span style=\"color: #24292EFF\">}</span>\n\n<span style=\"color: #6A737D\">//Not Working</span>\n<span style=\"color: #6F42C1\">doctorize</span><span style=\"color: #24292EFF\">(‘wes’);</span>\n<span style=\"color: #D32F2F\">const</span><span style=\"color: #24292EFF\"> </span><span style=\"color: #6F42C1\">doctorize</span><span style=\"color: #24292EFF\"> </span><span style=\"color: #D32F2F\">=</span><span style=\"color: #24292EFF\"> </span><span style=\"color: #D32F2F\">function</span><span style=\"color: #24292EFF\"> (firstname) {</span>\n<span style=\"color: #24292EFF\">  </span><span style=\"color: #D32F2F\">return</span><span style=\"color: #24292EFF\"> </span><span style=\"color: #22863A\">`Dr. </span><span style=\"color: #D32F2F\">${</span><span style=\"color: #24292EFF\">firstname</span><span style=\"color: #D32F2F\">}</span><span style=\"color: #22863A\">`</span>\n<span style=\"color: #24292EFF\">}</span></code></pre>\n<p><strong>Arrow Function</strong></p>\n<pre class=\"shiki\" style=\"background-color: #ffffff\"><code><span style=\"color: #6A737D\">// Regular Declaration</span>\n<span style=\"color: #D32F2F\">function</span><span style=\"color: #24292EFF\"> </span><span style=\"color: #6F42C1\">inchToCM</span><span style=\"color: #24292EFF\">(inches) {</span>\n<span style=\"color: #24292EFF\">  </span><span style=\"color: #D32F2F\">const</span><span style=\"color: #24292EFF\"> cm </span><span style=\"color: #D32F2F\">=</span><span style=\"color: #24292EFF\"> inches </span><span style=\"color: #D32F2F\">*</span><span style=\"color: #24292EFF\"> </span><span style=\"color: #1976D2\">2.54</span><span style=\"color: #24292EFF\">;</span>\n<span style=\"color: #24292EFF\">  </span><span style=\"color: #D32F2F\">return</span><span style=\"color: #24292EFF\"> cm;</span>\n<span style=\"color: #24292EFF\">}</span>\n<span style=\"color: #6A737D\">// Arrow Function Declaration</span>\n<span style=\"color: #D32F2F\">const</span><span style=\"color: #24292EFF\"> </span><span style=\"color: #6F42C1\">inchToCM</span><span style=\"color: #24292EFF\"> </span><span style=\"color: #D32F2F\">=</span><span style=\"color: #24292EFF\"> (inches) </span><span style=\"color: #D32F2F\">=&gt;</span><span style=\"color: #24292EFF\"> {</span>\n<span style=\"color: #24292EFF\">  </span><span style=\"color: #6A737D\">// Explicit return </span>\n<span style=\"color: #24292EFF\">  </span><span style=\"color: #D32F2F\">return</span><span style=\"color: #24292EFF\"> inches </span><span style=\"color: #D32F2F\">*</span><span style=\"color: #24292EFF\"> </span><span style=\"color: #1976D2\">2.54</span><span style=\"color: #24292EFF\">;</span>\n<span style=\"color: #24292EFF\">}</span>\n<span style=\"color: #24292EFF\">​</span>\n<span style=\"color: #6A737D\">// Implicit return, possible to remove the parenthesi if only one parameter</span>\n<span style=\"color: #D32F2F\">const</span><span style=\"color: #24292EFF\"> </span><span style=\"color: #6F42C1\">inchToCM</span><span style=\"color: #24292EFF\"> </span><span style=\"color: #D32F2F\">=</span><span style=\"color: #24292EFF\"> inches </span><span style=\"color: #D32F2F\">=&gt;</span><span style=\"color: #24292EFF\"> inches </span><span style=\"color: #D32F2F\">*</span><span style=\"color: #24292EFF\"> </span><span style=\"color: #1976D2\">2.54</span><span style=\"color: #24292EFF\">;</span>\n<span style=\"color: #24292EFF\">​</span>\n<span style=\"color: #6A737D\">// Implicit return, if more than one parameter</span>\n<span style=\"color: #D32F2F\">const</span><span style=\"color: #24292EFF\"> </span><span style=\"color: #6F42C1\">add</span><span style=\"color: #24292EFF\"> </span><span style=\"color: #D32F2F\">=</span><span style=\"color: #24292EFF\"> (a, b </span><span style=\"color: #D32F2F\">=</span><span style=\"color: #24292EFF\"> </span><span style=\"color: #1976D2\">3</span><span style=\"color: #24292EFF\">) </span><span style=\"color: #D32F2F\">=&gt;</span><span style=\"color: #24292EFF\"> a </span><span style=\"color: #D32F2F\">+</span><span style=\"color: #24292EFF\"> b;</span></code></pre>\n<p><strong>Return an object</strong></p>\n<pre class=\"shiki\" style=\"background-color: #ffffff\"><code><span style=\"color: #D32F2F\">function</span><span style=\"color: #24292EFF\"> </span><span style=\"color: #6F42C1\">makeABaby</span><span style=\"color: #24292EFF\">(first, last) {</span>\n<span style=\"color: #24292EFF\">  </span><span style=\"color: #D32F2F\">const</span><span style=\"color: #24292EFF\"> baby </span><span style=\"color: #D32F2F\">=</span><span style=\"color: #24292EFF\"> {</span>\n<span style=\"color: #24292EFF\">    name</span><span style=\"color: #D32F2F\">:</span><span style=\"color: #24292EFF\"> </span><span style=\"color: #22863A\">`</span><span style=\"color: #D32F2F\">${</span><span style=\"color: #24292EFF\">first</span><span style=\"color: #D32F2F\">}</span><span style=\"color: #22863A\"> </span><span style=\"color: #D32F2F\">${</span><span style=\"color: #24292EFF\">last</span><span style=\"color: #D32F2F\">}</span><span style=\"color: #22863A\">`</span><span style=\"color: #24292EFF\">,</span>\n<span style=\"color: #24292EFF\">    age</span><span style=\"color: #D32F2F\">:</span><span style=\"color: #24292EFF\"> </span><span style=\"color: #1976D2\">0</span>\n<span style=\"color: #24292EFF\">  }</span>\n<span style=\"color: #24292EFF\">  </span><span style=\"color: #D32F2F\">return</span><span style=\"color: #24292EFF\"> baby;</span>\n<span style=\"color: #24292EFF\">}</span>\n<span style=\"color: #24292EFF\">​</span>\n<span style=\"color: #D32F2F\">const</span><span style=\"color: #24292EFF\"> </span><span style=\"color: #6F42C1\">makeABaby</span><span style=\"color: #24292EFF\"> </span><span style=\"color: #D32F2F\">=</span><span style=\"color: #24292EFF\"> (first, last) </span><span style=\"color: #D32F2F\">=&gt;</span><span style=\"color: #24292EFF\">  ({  name</span><span style=\"color: #D32F2F\">:</span><span style=\"color: #24292EFF\"> </span><span style=\"color: #22863A\">`</span><span style=\"color: #D32F2F\">${</span><span style=\"color: #24292EFF\">first</span><span style=\"color: #D32F2F\">}</span><span style=\"color: #22863A\"> </span><span style=\"color: #D32F2F\">${</span><span style=\"color: #24292EFF\">last</span><span style=\"color: #D32F2F\">}</span><span style=\"color: #22863A\">`</span><span style=\"color: #24292EFF\">,  age</span><span style=\"color: #D32F2F\">:</span><span style=\"color: #24292EFF\"> </span><span style=\"color: #1976D2\">0</span><span style=\"color: #24292EFF\">  })</span></code></pre>\n<p><strong>IIFE - Immediately Invoked Function Expression</strong></p>\n<p>In JS parenthesis runs first by putting parenthesis in the end.</p>\n<pre class=\"shiki\" style=\"background-color: #ffffff\"><code><span style=\"color: #24292EFF\">(</span><span style=\"color: #D32F2F\">function</span><span style=\"color: #24292EFF\">() {</span>\n<span style=\"color: #24292EFF\">  </span><span style=\"color: #1976D2\">console</span><span style=\"color: #24292EFF\">.</span><span style=\"color: #1976D2\">log</span><span style=\"color: #24292EFF\">(‘Running the Anon </span><span style=\"color: #1976D2\">Function</span><span style=\"color: #24292EFF\">’)</span>\n<span style=\"color: #24292EFF\">  </span><span style=\"color: #D32F2F\">return</span><span style=\"color: #24292EFF\"> ‘You are cool’;</span>\n<span style=\"color: #24292EFF\">})();</span>\n<span style=\"color: #6A737D\">// If there are any parameters</span>\n<span style=\"color: #24292EFF\">(</span><span style=\"color: #D32F2F\">function</span><span style=\"color: #24292EFF\">(age) {</span>\n<span style=\"color: #24292EFF\">  </span><span style=\"color: #D32F2F\">return</span><span style=\"color: #24292EFF\"> </span><span style=\"color: #22863A\">`You are cool </span><span style=\"color: #D32F2F\">${</span><span style=\"color: #24292EFF\">age</span><span style=\"color: #D32F2F\">}</span><span style=\"color: #22863A\">`</span><span style=\"color: #24292EFF\">;</span>\n<span style=\"color: #24292EFF\">})(</span><span style=\"color: #1976D2\">10</span><span style=\"color: #24292EFF\">);</span></code></pre>\n<p><strong>Methods!!! is simply a function that lives inside of an object</strong></p>\n<pre class=\"shiki\" style=\"background-color: #ffffff\"><code><span style=\"color: #D32F2F\">const</span><span style=\"color: #24292EFF\"> wes </span><span style=\"color: #D32F2F\">=</span><span style=\"color: #24292EFF\"> {</span>\n<span style=\"color: #24292EFF\">  name</span><span style=\"color: #D32F2F\">:</span><span style=\"color: #24292EFF\"> ‘wes’,</span>\n<span style=\"color: #24292EFF\">  </span><span style=\"color: #6F42C1\">sayHi</span><span style=\"color: #D32F2F\">:</span><span style=\"color: #24292EFF\"> </span><span style=\"color: #D32F2F\">function</span><span style=\"color: #24292EFF\">() {</span>\n<span style=\"color: #24292EFF\">    </span><span style=\"color: #D32F2F\">return</span><span style=\"color: #24292EFF\"> ‘Hey Wes’</span>\n<span style=\"color: #24292EFF\">  },</span>\n<span style=\"color: #24292EFF\">  </span><span style=\"color: #6A737D\">//shorthand</span>\n<span style=\"color: #24292EFF\">  </span><span style=\"color: #6F42C1\">yellHi</span><span style=\"color: #24292EFF\">() {</span>\n<span style=\"color: #24292EFF\">    </span><span style=\"color: #1976D2\">console</span><span style=\"color: #24292EFF\">.</span><span style=\"color: #1976D2\">log</span><span style=\"color: #24292EFF\">(‘HEY WESSS’)</span>\n<span style=\"color: #24292EFF\">  },</span>\n<span style=\"color: #24292EFF\">  </span><span style=\"color: #6A737D\">// Arrow function</span>\n<span style=\"color: #24292EFF\">  </span><span style=\"color: #6F42C1\">wisperHi</span><span style=\"color: #D32F2F\">:</span><span style=\"color: #24292EFF\"> () </span><span style=\"color: #D32F2F\">=&gt;</span><span style=\"color: #24292EFF\"> {</span>\n<span style=\"color: #24292EFF\">    consoles.</span><span style=\"color: #6F42C1\">log</span><span style=\"color: #24292EFF\">(‘hi wess </span><span style=\"color: #D32F2F\">in</span><span style=\"color: #24292EFF\"> a mouse’);</span>\n<span style=\"color: #24292EFF\">  }</span>\n<span style=\"color: #24292EFF\">}</span></code></pre>\n<p><strong>Callback Functions</strong></p>\n<pre class=\"shiki\" style=\"background-color: #ffffff\"><code><span style=\"color: #6A737D\">//Click callback</span>\n<span style=\"color: #24292EFF\">&lt;</span><span style=\"color: #22863A\">button</span><span style=\"color: #24292EFF\"> </span><span style=\"color: #6F42C1\">class</span><span style=\"color: #24292EFF\">=“clickme”&gt;Click me&lt;/button&gt;</span>\n<span style=\"color: #24292EFF\">​</span>\n<span style=\"color: #6F42C1\">const</span><span style=\"color: #24292EFF\"> </span><span style=\"color: #6F42C1\">button</span><span style=\"color: #24292EFF\"> = document.querySelector(‘.clickme’)</span>\n<span style=\"color: #24292EFF\">​</span>\n<span style=\"color: #24292EFF\">button.addEventListener(‘click’, wes.yellHi);</span></code></pre>\n<hr>\n","excerpt":"","description":"","timeToRead":1,"tags":[{"id":"Today I Learned","title":"Today I Learned","path":"/tag/Today%20I%20Learned/"},{"id":"JS","title":"JS","path":"/tag/JS/"}]}},{"node":{"id":"787ce1e9bd91a0095843420b92cf251e","title":"Plug It","datetime":"2019-06-20 00:00:00","path":"/plug-it/","content":"<p>Plug It is a co-working space &#x26; Studio hub for working professionals and university students. </p>\n<hr>\n","excerpt":"","description":"Coworking System","timeToRead":1,"tags":[{"id":"projects","title":"projects","path":"/tag/projects/"},{"id":"laravel","title":"laravel","path":"/tag/laravel/"}]}},{"node":{"id":"c88df58eeed7f9484438d9faf5dcaf54","title":"TIBS","datetime":"2019-06-20 00:00:00","path":"/tibs/","content":"<p>TIBS is a Barangay System tool to manage residents identity and secure information.\n<img src=\"/images/posts/TIBS.png\" alt=\"TIBS\"></p>\n","excerpt":"","description":"Barangay ID system tool for residents management and ID printing.","timeToRead":1,"tags":[{"id":"projects","title":"projects","path":"/tag/projects/"}]}}]}}},"context":{}}